%YAML 1.1
%TAG !u! tag:unity3d.com,2011:
--- !u!1045 &1
EditorBuildSettings:
  m_ObjectHideFlags: 0
  serializedVersion: 2
  m_Scenes:
  - enabled: 1
    path: Assets/AltUnityTester/AltUnityTester-BindingsAndExamples(can_be_deleted)/Scenes/Scene
      1 AltUnityDriverTestScene.unity
    guid: b52c047743c7b4508908a92db3f971b6
  - enabled: 0
    path: Assets/AltUnityTester/AltUnityTester-BindingsAndExamples(can_be_deleted)/Scenes/Scene
      2 Draggable Panel.unity
    guid: 838436750d0cf48a685923371f66cea6
  - enabled: 0
    path: Assets/AltUnityTester/AltUnityTester-BindingsAndExamples(can_be_deleted)/Scenes/Scene
      3 Drag And Drop.unity
    guid: 40116c4af15e1444f8e21d1de1f4678f
  - enabled: 0
    path: Assets/Scenes/SampleScene.unity
    guid: 2cda990e2423bbf4892e6590ba056729
  m_configObjects: {}
